/* XPM */
static char * title_1_active_xpm[] = {
"5 23 6 1",
" 	c None",
".	c #989898",
"+	c #F1FF3F",
"@	c #FCCB00",
"#	c #D8D8D8",
"$	c #888888",
".....",
"+++++",
"@@@@@",
"@@@@@",
"@@@@@",
"@@@@@",
"@@@@@",
"@@@@@",
"@@@@@",
"@@@@@",
"@@@@@",
"@@@@@",
"@@@@@",
"@@@@@",
"@@@@@",
"@@@@@",
"@@@@@",
"@@@@@",
"@@@@@",
"@@@@@",
"#####",
"#####",
"$$$$$"};
